<svg width="23" height="18" viewBox="0 0 23 18" fill="none" xmlns="http://www.w3.org/2000/svg">
<path d="M20.4517 0H2.45166C1.45166 0 0.45166 1 0.45166 2V16C0.45166 17.1 1.35166 18 2.45166 18H20.4517C21.4517 18 22.4517 17 22.4517 16V2C22.4517 1 21.4517 0 20.4517 0ZM20.4517 15.92C20.4317 15.95 20.3917 15.98 20.3717 16H2.45166V2.08L2.53166 2H20.3617C20.3917 2.02 20.4217 2.06 20.4417 2.08V15.92H20.4517ZM10.4517 12.51L7.95166 9.5L4.45166 14H18.4517L13.9517 8L10.4517 12.51Z" fill="#9692B0"/>
</svg>
